Data on pairs of countries including distance measures and dummy variables indicating common attributes — dist_cepii • geodist
…
    References

    Mayer, T. & Zignago, S. (2011)
  Notes on CEPII's distances measures: the GeoDist Database
  CEPII Working Paper 2011-25
  
Head, K. & Mayer, T. (2002)
  Illusory Border Effects: Distance Mismeasurement In-flates Estimates of Home Bias in Trade
  CEPII Working Paper 2002-01

    Examples

# filter countries that share borders
dist_cepii[dist_cepii$contig == 1, ]
#> # A tibble: 616 x 14
#>    iso_o iso_d contig comlang_off comlang_ethno colony comcol curcol col45
#>    <chr> <chr>  <dbl>       <dbl>         <dbl>  <dbl>  <dbl>  <dbl> <dbl>
#>  1 AFG   CHN        1           0             0      0      0      0     0
#>  2 AFG   IRN        1           1             1      0      0      0     0
#>  3 AFG   PAK        1           0             0      0      0      0     0
#>  4 AFG   TJK        1           0             0      0      0      0     0
#>  5 AFG   TKM        1           0             0      0      0      0     0
#>  6 AFG   UZB        1           0             1      0      0      0     0
#>  7 AGO   NAM        1           0             0      0      0      0     0
#>  8 AGO   ZAR        1           0             0      0      0      0     0
#>  9 AGO   ZMB        1           0             0      0      0      0     0
#> 10 ALB   GRC        1           0             0      0      0      0     0
#> # … with 606 more rows, and 5 more variables: smctry <dbl>, dist <dbl>,
#> #   distcap <dbl>, distw <chr>, distwces <chr>
…
