Data on countries and their main city or agglomeration — geo_cepii • cepiigeodist
…
    References

    Mayer, T. & Zignago, S. (2011)
  Notes on CEPII's distances measures: the GeoDist Database
  CEPII Working Paper 2011-25
  
Head, K. & Mayer, T. (2002)
  Illusory Border Effects: Distance Mismeasurement In-flates Estimates of Home Bias in Trade
  CEPII Working Paper 2002-01

    Examples

# filter to avoid multiple records for the same country
geo_cepii[geo_cepii$cap == 1 & geo_cepii$maincity == 1, ]
#> # A tibble: 212 x 34
#>    iso2  iso3   cnum country pays    area dis_int landlocked continent city_en
#>    <chr> <chr> <dbl> <chr>   <chr>  <dbl>   <dbl>      <dbl> <chr>     <chr>  
#>  1 AW    ABW     533 Aruba   Aruba 1.93e2    5.23          0 America   Oranje~
#>  2 AF    AFG       4 Afghan~ Afgh~ 6.52e5  304.            1 Asia      Kabul  
#>  3 AO    AGO      24 Angola  Ango~ 1.25e6  420.            0 Africa    Luanda 
#>  4 AI    AIA     660 Anguil~ Angu~ 1.02e2    3.80          0 America   The Va~
#>  5 AL    ALB       8 Albania Alba~ 2.87e4   63.8           0 Europe    Tirana 
#>  6 AD    AND      20 Andorra Ando~ 4.53e2    8.01          0 Europe    Andorr~
#>  7 AN    ANT     530 Nether~ Anti~ 9.60e2   11.7           0 America   Willem~
#>  8 AE    ARE     784 United~ Emir~ 8.37e4  109.            0 Asia      Abu Dh~
#>  9 AR    ARG      32 Argent~ Arge~ 2.77e6  626.            0 America   Buenos~
#> 10 AM    ARM      51 Armenia Armé~ 2.98e4   64.9           1 Asia      Yerevan
#> # ... with 202 more rows, and 24 more variables: city_fr <chr>, lat <dbl>,
#> #   lon <dbl>, cap <dbl>, maincity <dbl>, citynum <chr>, langoff_1 <chr>,
#> #   langoff_2 <chr>, langoff_3 <chr>, lang20_1 <chr>, lang20_2 <chr>,
#> #   lang20_3 <chr>, lang20_4 <chr>, lang9_1 <chr>, lang9_2 <chr>,
#> #   lang9_3 <chr>, lang9_4 <chr>, colonizer1 <chr>, colonizer2 <chr>,
#> #   colonizer3 <chr>, colonizer4 <chr>, short_colonizer1 <chr>,
#> #   short_colonizer2 <chr>, short_colonizer3 <chr>
…
